<?xml version="1.0" encoding="UTF-8"?>
<!-- Generator: Adobe Illustrator 16.0.0, SVG Export Plug-In . SVG Version: 6.00 Build 0)  -->
<!DOCTYPE svg PUBLIC "-//W3C//DTD SVG 1.0//EN" "http://www.w3.org/TR/2001/REC-SVG-20010904/DTD/svg10.dtd">
<svg version="1.0" id="Layer_1" xmlns="http://www.w3.org/2000/svg" xmlns:xlink="http://www.w3.org/1999/xlink" x="0px" y="0px" width="800px" height="800px" viewBox="0 0 800 800" enable-background="new 0 0 800 800" xml:space="preserve">
<g>
	<polygon points="89.995,187.366 93.967,429.014 51.836,415.5 83.632,385.294 84.428,356.68 29.58,405.959 28.784,428.221    117.019,463.99 111.454,197.698  "/>
	<polygon stroke="#000000" points="120.993,374.961 167.889,432.984 179.815,419.477 198.89,446.504 216.381,430.604    234.664,458.424 250.56,441.729 270.433,468.76 288.717,452.859 311.769,486.248 327.664,467.168 346.743,498.17 371.383,474.324    418.283,491.016 450.875,536.324 473.131,515.656 500.955,554.607 521.619,536.324 547.057,572.096 572.494,548.248    741.805,612.635 741.012,500.557 771.217,512.479 770.42,488.631 740.217,475.912 740.217,430.604 719.547,421.068    720.342,469.553 710.008,467.168 709.217,486.248 720.342,491.814 720.342,579.248 568.52,525.195 549.441,538.711    524.797,506.119 504.131,520.43 473.928,486.248 455.646,503.732 430.207,474.324 365.822,451.268 351.512,463.195    330.047,438.555 314.947,451.268 288.717,422.654 275.996,436.168 252.946,410.732 238.638,423.451 219.559,400.397    203.661,413.115 182.198,389.268 171.072,398.011 120.993,337.602  "/>
	<polygon stroke="#000000" points="134.505,252.545 133.71,334.42 171.072,380.523 183.791,368.603 202.867,395.629    220.356,381.321 237.046,406.758 255.329,390.063 275.204,418.682 291.895,404.373 314.152,432.195 331.639,417.887    352.309,447.297 360.256,435.375 419.873,459.221 419.078,426.631 396.028,374.168 421.463,382.911 420.666,359.858    368.204,340.78 367.409,366.219 392.848,425.037 348.331,408.346 347.539,332.832 326.87,324.881 326.87,336.012 315.742,320.91    291.895,310.576 291.101,378.935 279.974,387.677 271.227,380.523 270.433,256.524 251.356,246.983 249.765,306.598    242.61,293.885 216.381,285.141 215.586,356.68 205.25,362.241 195.711,350.321 195.711,277.189 175.841,267.648 176.633,351.115    154.377,327.268 155.968,261.289  "/>
	<polygon fill="#FFFFFF" points="318.92,402.783 327.664,393.247 327.664,347.938 311.769,343.163 311.769,396.422  "/>
	<polygon fill="#FFFFFF" points="243.408,374.168 251.356,365.424 252.151,320.115 234.664,314.55 235.456,367.015  "/>
	<polygon stroke="#000000" points="442.131,468.76 454.85,484.656 463.594,476.707 461.207,348.732 500.156,363.038    469.953,392.451 469.953,421.859 524.004,374.168 523.211,349.524 441.336,317.729  "/>
	<polygon stroke="#000000" points="493,412.32 512.08,395.629 513.67,408.346 531.955,394.833 531.158,421.859 513.67,436.963    513.67,495.785 504.131,503.732 491.414,489.424  "/>
	<polygon stroke="#000000" points="539.104,404.373 560.57,413.115 561.363,485.451 578.85,493.402 578.85,418.682 640.854,440.938    640.854,463.99 601.904,500.557 672.652,527.58 648.803,466.377 649.598,443.32 702.061,463.195 702.061,485.451 679.801,478.293    700.471,528.379 702.061,560.965 563.748,510.094 552.619,519.633 539.104,506.912  "/>
	<polygon stroke="#000000" points="537.52,376.55 557.391,384.502 558.184,363.038 538.311,354.293  "/>
	<polygon fill="#FFFFFF" points="601.109,470.346 617.008,454.451 599.52,448.094  "/>
</g>
</svg>